https://www.asciiart.eu/image-to-ascii





                                               @@
                                              @@@
                                             @@@@@
                                             @@@@@@
                                            @@@@@@@@
                                           @@@@@@@@@
                                          @@@@@@@@@@@
                                          @@@@@@@@@@@@
                                         @@@@@@@@@@@@@@
                                        @@@@@@@@@@@@@@@@
                                       @@@@@@@@@@@@@@@@@
                                      @@@@@@@@@@@@@@@@@@@
                                      @@@@@@@@@@@@@@@@@@@@
                                     @@@@@@@@@@@@@@@@@@@@@@
                                       @@@@@@@@@@@@@@@@@@@@@
                                   @@@   @@@@@@@@@@@@@@@@@@@@
                                  @@@@@@@  @@@@@@@@@@@@@@@@@@@
                                 @@@@@@@@@@@ @@@@@@@@@@@@@@@@@@
                                @@@@@@@@@@@@@@@@@@@@@@@@@@@@@@@
                               @@@@@@@@@@@@@@@@@@@@@@@@@@@@@@@@@
                              @@@@@@@@@@@@@@@@@@@@@@@@@@@@@@@@@@@
                              @@@@@@@@@@@@@@@@@@@@@@@@@@@@@@@@@@@@
                             @@@@@@@@@@@@@@@@@@@@@@@@@@@@@@@@@@@@@@
                            @@@@@@@@@@@@@@@@@@@@@@@@@@@@@@@@@@@@@@@@
                           @@@@@@@@@@@@@@@@@@@@@@@@@@@@@@@@@@@@@@@@@@
                          @@@@@@@@@@@@@@@@@@@@@@@@@@@@@@@@@@@@@@@@@@@@
                         @@@@@@@@@@@@@@@@@@@@@@@@@@@@@@@@@@@@@@@@@@@@@@
                        @@@@@@@@@@@@@@@@@@@@@@@@@@@@@@@@@@@@@@@@@@@@@@@@
                       @@@@@@@@@@@@@@@@@@@@         @@@@@@@@@@@@@@@@@@@@@
                      @@@@@@@@@@@@@@@@@@@@            @@@@@@@@@@@@@@@@@@@@
                     @@@@@@@@@@@@@@@@@@@               @@@@@@@@@@@@@@@@@@@@
                    @@@@@@@@@@@@@@@@@@@@                @@@@@@@@@@@@@@@@@@@@
                   @@@@@@@@@@@@@@@@@@@@                  @@@@@@@@@@@@@@@@@@@@
                  @@@@@@@@@@@@@@@@@@@@                   @@@@@@@@@@@@@@@@@@@@@
                 @@@@@@@@@@@@@@@@@@@@@                   @@@@@@@@@@@@@@@@@@@@@@
                @@@@@@@@@@@@@@@@@@@@@@                    @@@@@@@@@@@@@@@  @@@@@
               @@@@@@@@@@@@@@@@@@@@@@@                    @@@@@@@@@@@@@@@@@@   @@
              @@@@@@@@@@@@@@@@@@@@@@@@                    @@@@@@@@@@@@@@@@@@@@
             @@@@@@@@@@@@@@@@@@@@@@@@@                   @@@@@@@@@@@@@@@@@@@@@@@@
            @@@@@@@@@@@@@@@@@@@@@@@@@@                   @@@@@@@@@@@@@@@@@@@@@@@@@@
           @@@@@@@@@@@@@@@@@@@@                                 @@@@@@@@@@@@@@@@@@@@@
          @@@@@@@@@@@@@@@@                                           @@@@@@@@@@@@@@@@
         @@@@@@@@@@@@@                                                    @@@@@@@@@@@@       @@@
        @@@@@@@@@@                                                           @@@@@@@@@@
       @@@@@@@                                                                   @@@@@@@
      @@@@@                                                                          @@@@
     @@@                                                                                @@






